{
  "i18n": {
    "about": {
      "de": "Informationen",
      "en": "About",
      "es": "Acerca de",
      "fr": "À propos",
      "it": "Informazione",
      "ne": "Informatie",
      "po": "Informacja",
      "pg": "Sobre",
      "ru": "Информация"
    },
    "accept_and_process": {
      "de": "Akzeptieren und Verarbeiten",
      "en": "Accept and Process",
      "es": "Aceptar y Procesar",
      "fr": "Accepter et Traiter",
      "it": "Accetta ed Elabora",
      "ne": "Accepteer en Verwerk",
      "po": "Zaakceptuj i Przetwórz",
      "pg": "Aceitar e Processar",
      "ru": "Принять и обработать"
    },
    "amber": {
      "de": "Bernstein",
      "en": "Amber",
      "es": "Ámbar",
      "fr": "Ambre",
      "it": "Ambra",
      "ne": "Amber",
      "po": "Bursztyn",
      "pg": "Âmbar",
      "ru": "Янтарь"
    },
    "amount": {
      "de": "Betrag",
      "en": "Amount",
      "es": "Cantidad",
      "fr": "Montante",
      "it": "Quantità",
      "ne": "Bedrag",
      "po": "Kwota",
      "pg": "Quantia",
      "ru": "количество"
    },
    "amount_is_too_large_for_payer": {
      "de": "Der Betrag ist für den Zahler zu hoch",
      "en": "Amount is too large for payer",
      "es": "El monto es demasiado grande para el pagador",
      "fr": "Le montant est trop élevé pour le payeur",
      "it": "L'importo è troppo elevato per il pagatore",
      "ne": "Bedrag is te groot voor betaler",
      "po": "Kwota jest za duża dla płatnika",
      "pg": "O valor é muito grande para o pagador",
      "ru": "Сумма слишком велика для плательщика"
    },
    "amount_you_want_to_receive": {
      "de": "Betrag, den Sie erhalten möchten",
      "en": "Amount you want to receive",
      "es": "Cantidad que deseas recibir",
      "fr": "Montant que vous souhaitez recevoir",
      "it": "Importo che desideri ricevere",
      "ne": "Bedrag dat je wilt ontvangen",
      "po": "Kwota, którą chcesz otrzymać",
      "pg": "Valor que você deseja receber",
      "ru": "Сумма, которую вы хотите получить"
    },
    "are_the_user_data_okay_like_this": {
      "de": "Sind die Benutzerdaten so in Ordnung?",
      "en": "Are the user data okay like this?",
      "es": "¿Están bien los datos del usuario así?",
      "fr": "Les données utilisateur sont-elles correctes comme ça ?",
      "it": "I dati utente vanno bene così?",
      "ne": "Zijn de gebruikersgegevens zo in orde?",
      "po": "Czy dane użytkownika są w porządku?",
      "pg": "Os dados do usuário estão bem assim?",
      "ru": "С пользовательскими данными все в порядке?"
    },
    "auburn": {
      "de": "Auburn",
      "en": "Auburn",
      "es": "Castaño",
      "fr": "Auburn",
      "it": "Ramata",
      "ne": "Goudbruin",
      "po": "Kasztanowy",
      "pg": "Castanho-Aloirado",
      "ru": "Оберн"
    },
    "available": {
      "de": "Verfügbar",
      "en": "Available",
      "es": "Disponible",
      "fr": "Disponible",
      "it": "Disponibile",
      "ne": "Beschikbaar",
      "po": "Dostępny",
      "pg": "Disponível",
      "ru": "Доступный"
    },
    "available_per": {
      "de": "Verfügbar pro",
      "en": "Available per",
      "es": "Disponible por",
      "fr": "Disponible par",
      "it": "Disponibile per",
      "ne": "Beschikbaar per",
      "po": "Dostępne za",
      "pg": "Disponível por",
      "ru": "Доступно за"
    },
    "backup": {
      "de": "Sicherung",
      "en": "Backup",
      "es": "Respaldo",
      "fr": "Sauvegarde",
      "it": "Backup",
      "ne": "Backup",
      "po": "Kopia zapasowa",
      "pg": "Cópia de segurança",
      "ru": "Резервное копирование"
    },
    "backup_local_data": {
      "de": "Lokale Daten Sichern",
      "en": "Backup Local Data",
      "es": "Copia De Seguridad De Datos Locales",
      "fr": "Sauvegarder Les Données Locales",
      "it": "Backup Dei Dati Locali",
      "ne": "Backup Lokale Data",
      "po": "Utwórz Kopię Zapasową Danych Lokalnych",
      "pg": "Backup De Dados Locais",
      "ru": "Резервное копирование локальных данных"
    },
    "birthday": {
      "de": "Geburtstag",
      "en": "Birthday",
      "es": "Cumpleaños",
      "fr": "Anniversaire",
      "it": "Compleanno",
      "ne": "Verjaardag",
      "po": "Urodziny",
      "pg": "Aniversário",
      "ru": "День рождения"
    },
    "black": {
      "de": "Schwarz",
      "en": "Black",
      "es": "Negra",
      "fr": "Noire",
      "it": "Nera",
      "ne": "Zwart",
      "po": "Czarny",
      "pg": "Preta",
      "ru": "Черный"
    },
    "blond": {
      "de": "Blond",
      "en": "Blond",
      "es": "Rubio",
      "fr": "Blond",
      "it": "Biondo",
      "ne": "Blond",
      "po": "Blond",
      "pg": "Loiro",
      "ru": "Блондинка"
    },
    "blue": {
      "de": "Blau",
      "en": "Blue",
      "es": "Azul",
      "fr": "Bleue",
      "it": "Blu",
      "ne": "Blauw",
      "po": "Niebieski",
      "pg": "Azul",
      "ru": "Синий"
    },
    "bluegray": {
      "de": "Blau grau",
      "en": "Blue Gray",
      "es": "Gris Azulado",
      "fr": "Bleu-Gris",
      "it": "Blu Grigio",
      "ne": "Blauwgrijs",
      "po": "Niebieski Szary",
      "pg": "Cinza Azulado",
      "ru": "Серо-голубой"
    },
    "bluegreen": {
      "de": "Blau Grün",
      "en": "Blue Green",
      "es": "Azul Verde",
      "fr": "Bleu Vert",
      "it": "Blu Verde",
      "ne": "Blauwgroen",
      "po": "Niebieski Zielony",
      "pg": "Azul Verde",
      "ru": "Цвет морской волны"
    },
    "bought": {
      "de": "Gekauft",
      "en": "Bought",
      "es": "Compró",
      "fr": "Achetée",
      "it": "Comprato",
      "ne": "Gekocht",
      "po": "Kupił",
      "pg": "Comprada",
      "ru": "Купил"
    },
    "brown": {
      "de": "Braun",
      "en": "Brown",
      "es": "Marrón",
      "fr": "Brun",
      "it": "Marrone",
      "ne": "Bruin",
      "po": "Brązowy",
      "pg": "Marrom",
      "ru": "Коричневый"
    },
    "cashbook": {
      "de": "Kassenbuch",
      "en": "Cashbook",
      "es": "Libro de pago",
      "fr": "Livre de caisse",
      "it": "Libro di cassa",
      "ne": "Kasboek",
      "po": "Kasa fiskalna",
      "pg": "Livro caixa",
      "ru": "Кассовая книга"
    },
    "chesnutbrown": {
      "de": "Kastanienbraun",
      "en": "Chesnut Brown",
      "es": "Castaña",
      "fr": "Marron",
      "it": "Marrone Castagno",
      "ne": "Kastanje Bruin",
      "po": "Kasztanowy Brąz",
      "pg": "Marrom Castanho",
      "ru": "Каштановый"
    },
    "choose": {
      "de": "Wählen",
      "en": "Choose",
      "es": "Elegir",
      "fr": "Choisir",
      "it": "Scegliere",
      "ne": "Kies",
      "po": "Wybierać",
      "pg": "Escolher",
      "ru": "Выбирать"
    },
    "clear_data": {
      "de": "Daten löschen",
      "en": "Clear Data",
      "es": "Borrar datos",
      "fr": "Effacer les données",
      "it": "Cancella i dati",
      "ne": "Wis Data",
      "po": "Wyczyść dane",
      "pg": "Apagar os dados",
      "ru": "Очистить данные"
    },
    "clear_local_data": {
      "de": "Lokale Daten Löschen",
      "en": "Clear Local Data",
      "es": "Borrar Datos locales",
      "fr": "Effacer Les Données Locales",
      "it": "Cancella Dati Locali",
      "ne": "Wis Lokale Data",
      "po": "Wyczyść Dane Lokalne",
      "pg": "Limpar Dados Locais",
      "ru": "Очистить локальные данные"
    },
    "color": {
      "de": "Farbe",
      "en": "Color",
      "es": "Color",
      "fr": "Couleur",
      "it": "Colore",
      "ne": "Kleur",
      "po": "Kolor",
      "pg": "Cor",
      "ru": "Цвет"
    },
    "continue": {
      "de": "Weitermachen",
      "en": "Continue",
      "es": "Continuar",
      "fr": "Continuer",
      "it": "Continua",
      "ne": "Ga Verder",
      "po": "Kontynuować",
      "pg": "Continuar",
      "ru": "Продолжать"
    },
    "copper": {
      "de": "Kupfer",
      "en": "Copper",
      "es": "Cobre",
      "fr": "Cuivre",
      "it": "Rame",
      "ne": "Koperkleurig",
      "po": "Miedź",
      "pg": "Cobre",
      "ru": "Медь"
    },
    "cyan": {
      "de": "Cyan",
      "en": "Cyan",
      "es": "Cian",
      "fr": "Cyan",
      "it": "Ciana",
      "ne": "Cyaan",
      "po": "Cyjan",
      "pg": "Ciano",
      "ru": "Голубой"
    },
    "darkblond": {
      "de": "Dunkelblond",
      "en": "Dark Blond",
      "es": "Rubio Oscuro",
      "fr": "Blond Foncé",
      "it": "Biondo Scuro",
      "ne": "Donkerblond",
      "po": "Ciemny Blond",
      "pg": "Loiro Escuro",
      "ru": "Темно-русый"
    },
    "darkbrown": {
      "de": "Dunkelbraun",
      "en": "Dark Brown",
      "es": "Marrón Oscura",
      "fr": "Marron Foncé",
      "it": "Marrone Scuro",
      "ne": "Donkerbruin",
      "po": "Ciemny Brąz",
      "pg": "Marrom Escuro",
      "ru": "Темно коричневый"
    },
    "deeporange": {
      "de": "Tiefes Orange",
      "en": "Deep Orange",
      "es": "Naranja Intenso",
      "fr": "Orange Foncé",
      "it": "Arancio Profondo",
      "ne": "Donkeroranje",
      "po": "Głęboka Pomarańcza",
      "pg": "Laranja Profundo",
      "ru": "Темно-оранжевый"
    },
    "deeppurple": {
      "de": "Dunkellila",
      "en": "Deep Purple",
      "es": "Morado Oscuro",
      "fr": "Violet Foncé",
      "it": "Viola Profondo",
      "ne": "Donkerpaars",
      "po": "Głęboki Fiolet",
      "pg": "Roxo Profundo",
      "ru": "Темно-фиолетовый"
    },
    "description": {
      "de": "Beschreibung",
      "en": "Description",
      "es": "Descripcion",
      "fr": "Description",
      "it": "Descrizione",
      "ne": "Omschrijving",
      "po": "Opis",
      "pg": "Descrição",
      "ru": "Описание"
    },
    "description_of_transaction": {
      "de": "Beschreibung der Transaktion",
      "en": "Description of transaction",
      "es": "Descripcion de la transacción",
      "fr": "Description de la transaction",
      "it": "Descrizione di transazione",
      "ne": "Omschrijving van transactie",
      "po": "Opis tranzakcji",
      "pg": "Descrição da operação",
      "ru": "Описание перевода"
    },
    "enter_your_features": {
      "de": "Geben Sie Ihre Funktionen ein.",
      "en": "Enter your features.",
      "es": "Introduce tus características.",
      "fr": "Entrez vos fonctionnalités.",
      "it": "Inserisci le tue caratteristiche.",
      "ne": "Vul je eigenschappen in.",
      "po": "Wpisz swoje funkcje.",
      "pg": "Insira seus recursos.",
      "ru": "Введите свои характеристики."
    },
    "enter_your_full_name": {
      "de": "Geben Sie Ihren vollständigen Namen ein.",
      "en": "Enter your full name.",
      "es": "Ingrese su nombre completo.",
      "fr": "Entrez votre nom complet.",
      "it": "Inserisci il tuo nome e cognome.",
      "ne": "Vul je gehele naam in.",
      "po": "Wprowadź swoje imię i nazwisko.",
      "pg": "Escreva seu nome completo.",
      "ru": "Введите свое полное имя."
    },
    "enter_your_height": {
      "de": "Geben Sie Ihre Körpergröße ein",
      "en": "Enter Your Height",
      "es": "Ingrese Su Altura",
      "fr": "Entrez Votre Taille",
      "it": "Inserisci La Tua Altezza",
      "ne": "Voer Uw Lengte In",
      "po": "Wpisz Swój Wzrost",
      "pg": "Insira Sua Altura",
      "ru": "Введите свой рост"
    },
    "ethical_money": {
      "de": "Ethisches Geld",
      "en": "Ethical Money",
      "es": "Dinero Ético",
      "fr": "Argent Éthique",
      "it": "Denaro Etico",
      "ne": "Ethisch Geld",
      "po": "Etyczne Pieniądze",
      "pg": "Dinheiro Ético",
      "ru": "Этические деньги"
    },
    "features": {
      "de": "Merkmale",
      "en": "Features",
      "es": "Características",
      "fr": "Fonctionnalités",
      "it": "Caratteristiche",
      "ne": "Eigenschappen",
      "po": "Cechy",
      "pg": "Características",
      "ru": "Особые"
    },
    "feet": {
      "de": "Fuß",
      "en": "Feet",
      "es": "Pies",
      "fr": "Pieds",
      "it": "Piedi",
      "ne": "Feet",
      "po": "Stopy",
      "pg": "Pés",
      "ru": "футы"
    },
    "female": {
      "de": "Weiblich",
      "en": "Female",
      "es": "Femenina",
      "fr": "Femelle",
      "it": "Femmina",
      "ne": "Vrouwelijk",
      "po": "Kobieta",
      "pg": "Fêmea",
      "ru": "Женский"
    },
    "from": {
      "de": "Von",
      "en": "From",
      "es": "De",
      "fr": "De",
      "it": "Da",
      "ne": "Vanaf",
      "po": "Od",
      "pg": "De",
      "ru": "От"
    },
    "from_on": {
      "de": "Von / Am",
      "en": "From / On",
      "es": "De / En",
      "fr": "De / Sur",
      "it": "Da / Il",
      "ne": "Vanaf / Op",
      "po": "Od / Na",
      "pg": "De / Sobre",
      "ru": "От / На"
    },
    "from_others": {
      "de": "Von anderen",
      "en": "From Others",
      "es": "De otras",
      "fr": "Des autres",
      "it": "Da altri",
      "ne": "Van Anderen",
      "po": "Od innych",
      "pg": "De outros",
      "ru": "От других"
    },
    "gender": {
      "de": "Geschlecht",
      "en": "Gender",
      "es": "Género",
      "fr": "Genre",
      "it": "Genere",
      "ne": "Gender",
      "po": "Płeć",
      "pg": "Gênero",
      "ru": "Пол"
    },
    "gingerred": {
      "de": "Ingwerrot",
      "en": "Ginger Red",
      "es": "Rojo Jengibre",
      "fr": "Gingembre Rouge",
      "it": "Ginger Rosso",
      "ne": "Gember Rood",
      "po": "Czerwony Imbir",
      "pg": "Gengibre Vermelho",
      "ru": "Красный имбирь"
    },
    "goldblond": {
      "de": "Goldblond",
      "en": "Gold Blond",
      "es": "Rubio Dorado",
      "fr": "Blond Doré",
      "it": "Biondo Dorato",
      "ne": "Goud Blond",
      "po": "Złoty Blond",
      "pg": "Loiro Dourado",
      "ru": "Золотой блондин"
    },
    "gray": {
      "de": "Grau",
      "en": "Gray",
      "es": "Gris",
      "fr": "Grise",
      "it": "Grigio",
      "ne": "Grijs",
      "po": "Szary",
      "pg": "Cinza",
      "ru": "Серый"
    },
    "green": {
      "de": "Grün",
      "en": "Green",
      "es": "Verde",
      "fr": "Verte",
      "it": "Verde",
      "ne": "Groen",
      "po": "Zielony",
      "pg": "Verde",
      "ru": "Зеленый"
    },
    "greengray": {
      "de": "Grün Grau",
      "en": "Green Gray",
      "es": "Gris Verdoso",
      "fr": "Vert Gris",
      "it": "Verde Grigio",
      "ne": "Groengrijs",
      "po": "Zielony Szary",
      "pg": "Verde Cinza",
      "ru": "Зеленый Серый"
    },
    "hair": {
      "de": "Haar",
      "en": "Hair",
      "es": "Cabello",
      "fr": "Cheveux",
      "it": "Capelli",
      "ne": "Haar",
      "po": "Włosy",
      "pg": "Cabelo",
      "ru": "Волосы"
    },
    "hazel": {
      "de": "Hasel",
      "en": "Hazel",
      "es": "Color avellana",
      "fr": "Noisette",
      "it": "Nocciola",
      "ne": "Hazel",
      "po": "Leszczyna",
      "pg": "Avelã",
      "ru": "Хейзел"
    },
    "height": {
      "de": "Länge",
      "en": "Height",
      "es": "Longitud",
      "fr": "Longueur",
      "it": "Lunghezza",
      "ne": "Lengte",
      "po": "Długość",
      "pg": "Comprimento",
      "ru": "Длина"
    },
    "userdata": {
      "de": "Benutzerdaten",
      "en": "User Data",
      "es": "Datos del Usuario",
      "fr": "Données d'Utilisateur",
      "it": "Dati Utente",
      "ne": "Gebruikersgegevens",
      "po": "Dane Użytkownika",
      "pg": "Dados do Usuário",
      "ru": "Данные пользователя"
    },
    "inches": {
      "de": "Zoll",
      "en": "Inches",
      "es": "Pulgadas",
      "fr": "Pouces",
      "it": "Pollici",
      "ne": "Inches",
      "po": "Cale",
      "pg": "Polegadas",
      "ru": "дюймы"
    },
    "indigo": {
      "de": "Indigo",
      "en": "Indigo",
      "es": "Índiga",
      "fr": "Indigo",
      "it": "Indaco",
      "ne": "Indigo",
      "po": "Indygo",
      "pg": "Índigo",
      "ru": "Индиго"
    },
    "language": {
      "de": "Deutsch",
      "en": "English",
      "es": "Español",
      "fr": "Français",
      "it": "Italiano",
      "ne": "Nederlands",
      "po": "Polski",
      "pg": "Português",
      "ru": "Русский"
    },
    "left_eye": {
      "de": "Linkes Auge",
      "en": "Left Eye",
      "es": "Ojo Izquierdo",
      "fr": "Oeil Gauche",
      "it": "Occhio Sinistro",
      "ne": "Links Oog",
      "po": "Lewe Oko",
      "pg": "Olho Esquerdo",
      "ru": "Левый глаз"
    },
    "let_payer_scan_this_qr_code": {
      "de": "Lassen Sie den Zahler diesen QR-Code scannen",
      "en": "Let payer scan this QR-Code",
      "es": "Permita que el pagador escanee este código QR",
      "fr": "Laissez le payeur scanner ce QR-Code",
      "it": "Lascia che il pagatore esegua la scansione di questo codice QR",
      "ne": "Laat betaler deze QR-code scannen",
      "po": "Pozwól płatnikowi zeskanować ten kod QR",
      "pg": "Deixe o pagador digitalizar este QR-Code",
      "ru": "Разрешите плательщику отсканировать этот QR-код"
    },
    "let_receiver_of_your_coins": {
      "de": "\nLassen Sie den Empfänger Ihrer Münzen diesen QR-Code scannen:\n",
      "en": "\nLet the receiver of your coins scan this QR-Code:\n",
      "es": "\nDeje que el receptor de sus monedas escanee este código QR:\n",
      "fr": "\nLaissez le destinataire de vos pièces scanner ce QR-Code:\n",
      "it": "\nLascia che il destinatario delle tue monete esegua la scansione di questo codice QR:\n",
      "ne": "\nLaat de ontvanger van jouw munten deze QR-Code scannen:\n",
      "po": "\nPozwól odbiorcy Twoich monet zeskanować ten kod QR:\n",
      "pg": "\nDeixe o destinatário de suas moedas digitalizar este QR-Code:\n",
      "ru": "\nПозвольте получателю ваших монет отсканировать этот QR-код:\n"
    },
    "lightblond": {
      "de": "Hellblond",
      "en": "Light Blond",
      "es": "Rubio Claro",
      "fr": "Blond Clair",
      "it": "Biondo Chiaro",
      "ne": "Lichtblond",
      "po": "Jasny Blond",
      "pg": "Loiro Claro",
      "ru": "Светлый блондин"
    },
    "lightblue": {
      "de": "Hellblau",
      "en": "Light Blue",
      "es": "Azul Claro",
      "fr": "Bleu Clair",
      "it": "Azzurro",
      "ne": "Lichtblauw",
      "po": "Jasny Niebieski",
      "pg": "Azul claro",
      "ru": "Светло-синий"
    },
    "lightbrown": {
      "de": "Hellbraun",
      "en": "Light Brown",
      "es": "Marrón Clara",
      "fr": "Brun Clair",
      "it": "Marrone Chiaro",
      "ne": "Lichtbruin",
      "po": "Jasnobrązowy",
      "pg": "Marrom Claro",
      "ru": "Светло-коричневый"
    },
    "lightchesnut": {
      "de": "Helle Kastanie",
      "en": "Light Chesnut",
      "es": "Castaño Claro",
      "fr": "Châtain Clair",
      "it": "Castagno Chiaro",
      "ne": "Lichtkastanje",
      "po": "Jasny Kasztan",
      "pg": "Castanha Clara",
      "ru": "Светлый каштан"
    },
    "lightgreen": {
      "de": "Hellgrün",
      "en": "Light Green",
      "es": "Verde Claro",
      "fr": "Vert Clair",
      "it": "Verde Chiaro",
      "ne": "Lichtgroen",
      "po": "Jasnozielony",
      "pg": "Luz Verde",
      "ru": "Светло-зеленый"
    },
    "lime": {
      "de": "Kalk",
      "en": "Lime",
      "es": "Cal",
      "fr": "Citron Vert",
      "it": "Lime",
      "ne": "Limoen",
      "po": "Limonka",
      "pg": "Lima",
      "ru": "Лайм"
    },
    "male": {
      "de": "Männlich",
      "en": "Male",
      "es": "Masculino",
      "fr": "Mâle",
      "it": "Maschio",
      "ne": "Mannelijk",
      "po": "Mężczyzna",
      "pg": "Macho",
      "ru": "Мужской"
    },
    "manual": {
      "de": "Handbuch",
      "en": "Manual",
      "es": "Manual",
      "fr": "Manuel",
      "it": "Manuale",
      "ne": "Handleiding",
      "po": "podręcznik",
      "pg": "Manual",
      "ru": "Руководство"
    },
    "mark_as_fraud": {
      "de": "Als Betrug markieren",
      "en": "Mark as fraud",
      "es": "Marcar como fraude",
      "fr": "Marquer comme fraude",
      "it": "Contrassegna come frode",
      "ne": "Markeer als fraude",
      "po": "Oznacz jako oszustwo",
      "pg": "Marcar como fraude",
      "ru": "Отметить как мошенничество"
    },
    "meters": {
      "de": "Meter",
      "en": "Meters",
      "es": "Metros",
      "fr": "Mètres",
      "it": "Metri",
      "ne": "Meters",
      "po": "Metry",
      "pg": "Metros",
      "ru": "Метры"
    },
    "medblond": {
      "de": "Mittelblond",
      "en": "Medium Blond",
      "es": "Rubio Medio",
      "fr": "Blond Moyen",
      "it": "Biondo Medio",
      "ne": "Halfblond",
      "po": "Biondo Medio",
      "pg": "Loiro Médio",
      "ru": "Средний блондин"
    },
    "medbrown": {
      "de": "Mittel Braun",
      "en": "Medium Brown",
      "es": "Marrón Media",
      "fr": "Brun Moyen",
      "it": "Marrone Medio",
      "ne": "Halfbruin",
      "po": "Średni Brąz",
      "pg": "Castanho Médio",
      "ru": "Коричневый"
    },
    "name": {
      "de": "Name",
      "en": "Name",
      "es": "Nombre",
      "fr": "Nom",
      "it": "Nome",
      "ne": "Naam",
      "po": "Nazwa",
      "pg": "Nome",
      "ru": "Имя"
    },
    "nohair": {
      "de": "Keine Haare",
      "en": "No Hair",
      "es": "Sin Cabello",
      "fr": "Pas De Cheveux",
      "it": "Senza Capelli",
      "ne": "Geen Haar",
      "po": "Bez Włosów",
      "pg": "Sem Cabelo",
      "ru": "Без волос"
    },
    "open_source_software": {
      "de": "Quelloffene Software",
      "en": "Open Source Software",
      "es": "Software De\nCódigo Abierto",
      "fr": "Logiciels Open Source",
      "it": "Software Open Source",
      "ne": "Open Source Software",
      "po": "Oprogramowanie Typu\nOpen Source",
      "pg": "Software Livre",
      "ru": "Программное обеспечение с\nоткрытым исходным кодом"
    },
    "or_export_payer_data": {
      "de": "Oder exportieren Sie Zahlerdaten",
      "en": "Or export payer data",
      "es": "O exportar datos del pagador",
      "fr": "Ou exporter les données du payeur",
      "it": "Oppure esporta i dati del pagatore",
      "ne": "Of exporteer betaler data",
      "po": "Lub wyeksportuj dane płatnika",
      "pg": "Ou exporte dados do pagador",
      "ru": "Или экспортируйте данные плательщика"
    },
  "or_export_receiver_data": {
      "de": "Oder Empfängerdaten exportieren",
      "en": "Or export receiver data",
      "es": "O exportar datos del receptor",
      "fr": "Ou exporter les données du récepteur",
      "it": "Oppure esporta i dati del ricevitore",
      "ne": "Of exporteer ontvanger data",
      "po": "Lub wyeksportuj dane odbiornika",
      "pg": "Ou exporte dados do receptor",
      "ru": "Или экспортируйте данные получателя"
    },
    "or_load_the_payer_data": {
      "de": "Oder laden Sie die Zahlerdaten",
      "en": "Or load the payer data",
      "es": "O cargar los datos del pagador",
      "fr": "Ou chargez les données du payeur",
      "it": "Oppure carica i dati del pagatore",
      "ne": "Of laad de betaler data",
      "po": "Lub załaduj dane płatnika",
      "pg": "Ou carregue os dados do pagador",
      "ru": "Или загрузить данные плательщика"
    },
    "or_load_the_receiver_data": {
      "de": "Oder laden Sie die Empfängerdaten",
      "en": "Or load the receiver data",
      "es": "O cargar los datos del receptor",
      "fr": "Ou chargez les données du récepteur",
      "it": "Oppure caricare i dati del ricevitore",
      "ne": "Of laad de ontvanger data",
      "po": "Lub załaduj dane odbiornika",
      "pg": "Ou carregue os dados do receptor",
      "ru": "Или загрузить данные получателя"
    },
    "orange": {
      "de": "Orange",
      "en": "Orange",
      "es": "Naranja",
      "fr": "Orange",
      "it": "Arancia",
      "ne": "Oranje",
      "po": "Pomarańczowy",
      "pg": "Laranja",
      "ru": "Апельсин"
    },
    "other": {
      "de": "Andere",
      "en": "Other",
      "es": "Otra",
      "fr": "Autre",
      "it": "Altra",
      "ne": "Overig",
      "po": "Inny",
      "pg": "Outra",
      "ru": "Другой"
    },
    "past_value": {
      "de": "Vergangener Wert",
      "en": "Past Value",
      "es": "Valor pasado",
      "fr": "Valeur passée",
      "it": "Valore passato",
      "ne": "Historische Waarde",
      "po": "Wartość przeszła",
      "pg": "Valor Passado",
      "ru": "Прошлая стоимость"
    },
    "paid_on": {
      "de": "Bezahlt am",
      "en": "Paid on",
      "es": "Pagado en",
      "fr": "Payé le",
      "it": "Pagato",
      "ne": "Betaald op",
      "po": "Zapłacone",
      "pg": "Pago em",
      "ru": "Оплачено"
    },
    "pay": {
      "de": "Zahlen",
      "en": "Pay",
      "es": "Pagar",
      "fr": "Payer",
      "it": "Paga",
      "ne": "Betaal",
      "po": "Płacić",
      "pg": "Pagar",
      "ru": "Платить"
    },
    "payer_accepts_your_proposal": {
      "de": "Der Zahler nimmt Ihren Vorschlag an.",
      "en": "Payer accepts your proposal.",
      "es": "El pagador acepta su propuesta.",
      "fr": "Le payeur accepte votre proposition.",
      "it": "Il pagatore accetta la tua proposta.",
      "ne": "Betaler accepteerd jouw voorstel",
      "po": "Płatnik akceptuje Twoją propozycję.",
      "pg": "O pagador aceita sua proposta.",
      "ru": "Плательщик принимает ваше предложение."
    },
    "pink": {
      "de": "Rosa",
      "en": "Pink",
      "es": "Rosa",
      "fr": "Rose",
      "it": "Rosa",
      "ne": "Roze",
      "po": "Różowy",
      "pg": "Rosa",
      "ru": "Розовый"
    },
    "present_value": {
      "de": "Gegenwärtiger Wert",
      "en": "Present Value",
      "es": "Valor presente",
      "fr": "Valeur actuelle",
      "it": "Valore attuale",
      "ne": "Huidige Waarde",
      "po": "Obecna wartość",
      "pg": "Valor presente",
      "ru": "Приведенная стоимость"
    },
    "prosthesis": {
      "de": "Prothese",
      "en": "Prosthesis",
      "es": "Prótesis",
      "fr": "Prothèse",
      "it": "Protesi",
      "ne": "Prothese",
      "po": "Proteza",
      "pg": "Prótese",
      "ru": "Протез"
    },
    "purple": {
      "de": "Lila",
      "en": "Purple",
      "es": "Morada",
      "fr": "Violette",
      "it": "Viola",
      "ne": "Paars",
      "po": "Fioletowy",
      "pg": "Roxa",
      "ru": "Фиолетовый"
    },
    "receive": {
      "de": "Erhalten",
      "en": "Receive",
      "es": "Recibir",
      "fr": "Recevoir",
      "it": "Ricevere",
      "ne": "Ontvangen",
      "po": "Odbierać",
      "pg": "Receber",
      "ru": "Получать"
    },
    "receive_list": {
      "de": "Empfangsliste",
      "en": "Receive List",
      "es": "Lista de recepción",
      "fr": "Recevoir la liste",
      "it": "Ricevi elenco",
      "ne": "Ontvangstlijst",
      "po": "Otrzymaj listę",
      "pg": "Lista de recebimento",
      "ru": "Получить список"
    },
    "received_on": {
      "de": "Eingegangen am",
      "en": "Received on",
      "es": "Recibido el",
      "fr": "Reçu le",
      "it": "Ricevuto il",
      "ne": "Ontvangen op",
      "po": "Otrzymana w dniu",
      "pg": "Recebido em",
      "ru": "Получено На"
    },
    "red": {
      "de": "Rot",
      "en": "Red",
      "es": "Roja",
      "fr": "Rouge",
      "it": "Rossa",
      "ne": "Rood",
      "po": "Czerwony",
      "pg": "Vermelha",
      "ru": "Красный"
    },
    "remaining_height": {
      "de": "Verbleibende Länge",
      "en": "Remaining Height",
      "es": "Altura Restante",
      "fr": "Hauteur Restante",
      "it": "Altezza Rimanente",
      "ne": "Resterende Lengte",
      "po": "Pozostała Wysokość",
      "pg": "Altura Restante",
      "ru": "Оставшаяся высота"
    },
    "restore": {
      "de": "Wiederherstellen",
      "en": "Restore",
      "es": "Restaurar",
      "fr": "Restaurer",
      "it": "Ristabilire",
      "ne": "Restore",
      "po": "Przywrócić",
      "pg": "Restaurar",
      "ru": "Восстановить"
    },
    "restore_local_data": {
      "de": "Lokale Daten wiederherstellen",
      "en": "Restore Local Data",
      "es": "Restaurar datos locales",
      "fr": "Restaurer les données locales",
      "it": "Ripristina i dati locali",
      "ne": "Restore Lokale Data",
      "po": "Przywróć dane lokalne",
      "pg": "Restaurar dados locais",
      "ru": "Восстановить локальные данные"
    },
    "right_eye": {
      "de": "Rechtes Auge",
      "en": "Right Eye",
      "es": "Ojo Derecho",
      "fr": "L'œil Droit",
      "it": "Occhio Destro",
      "ne": "Rechts Oog",
      "po": "Prawe Oko",
      "pg": "Olho Direito",
      "ru": "Правый глаз"
    },
    "scan_the_qrcode_of_the_payer_of_the_coins": {
      "de": "Scannen Sie den QR-Code des Zahlers der Münzen.",
      "en": "Scan the QR-Code of the payer of the coins.",
      "es": "Escanea el código QR del pagador de las monedas.",
      "fr": "Scannez le QR-Code du payeur des pièces.",
      "it": "Scansiona il QR-Code del pagatore delle monete.",
      "ne": "Scan de QR-Code van de betaler van de munten.",
      "po": "Zeskanuj kod QR płatnika monet.",
      "pg": "Digitalize o QR-Code do pagador das moedas.",
      "ru": "Отсканируйте QR-код плательщика монет."
    },
    "scan_the_qrcode_of_the_receiver_of_the_coins": {
      "de": "Scannen Sie den QR-Code des Empfängers der Münzen.",
      "en": "Scan the QR-Code of the receiver of the coins.",
      "es": "Escanee el código QR del receptor de las monedas.",
      "fr": "Scannez le QR-Code du destinataire des pièces.",
      "it": "Scansiona il QR-Code del destinatario delle monete.",
      "ne": "Scan de QR-Code van de ontvanger van de munten.",
      "po": "Zeskanuj kod QR odbiorcy monet.",
      "pg": "Digitalize o QR-Code do destinatário das moedas.",
      "ru": "Отсканируйте QR-код получателя монет."
    },
    "screen_color": {
      "de": "Bildschirmfarbe",
      "en": "Screen Color",
      "es": "Color De Pantalla",
      "fr": "Couleur De l'Écran",
      "it": "Colore Dello Schermo",
      "ne": "Schermkleur",
      "po": "Kolor Ekranu",
      "pg": "Cor Da Tela",
      "ru": "Цвет экрана"
    },
    "security": {
      "de": "Sicherheit",
      "en": "Security",
      "es": "Seguridad",
      "fr": "Sécurité",
      "it": "Sicurezza",
      "ne": "Veiligheid",
      "po": "Bezpieczeństwo",
      "pg": "Segurança",
      "ru": "Безопасность"
    },
    "select_app_language": {
      "de": "App-Sprache Auswählen",
      "en": "Select App Language",
      "es": "Idioma De La Aplicación",
      "fr": "La Langue De l'Application",
      "it": "Seleziona La Lingua Dell'App",
      "ne": "Selecteer App Taal",
      "po": "Wybierz Język aplikacji",
      "pg": "Selecione O Idioma Do Aplicativo",
      "ru": "Выберите язык приложения"
    },
    "select_birthday": {
      "de": "Geburtstag auswählen",
      "en": "Select Birthday",
      "es": "Cumpleaños Selecto",
      "fr": "Sélectionnez Anniversaire",
      "it": "Seleziona La Data Di Nascita",
      "ne": "Selecteer Verjaardag",
      "po": "Wybierz Datę Urodzenia",
      "pg": "Selecione Aniversário",
      "ru": "Выберите день рождения"
    },
    "select_date1": {
      "de": "Wählen Sie Datum 1",
      "en": "Select Date 1",
      "es": "Seleccionar fecha 1",
      "fr": "Sélectionnez la date 1",
      "it": "Seleziona Data 1",
      "ne": "Selecteer Datum 1",
      "po": "Wybierz datę 1",
      "pg": "Selecione a data 1",
      "ru": "Выберите дату 1"
    },
    "select_date2": {
      "de": "Wählen Sie Datum 2",
      "en": "Select Date 2",
      "es": "Seleccionar fecha 2",
      "fr": "Sélectionnez la date 2",
      "it": "Seleziona Data 2",
      "ne": "Selecteer Datum 2",
      "po": "Wybierz datę 2",
      "pg": "Selecione a data 2",
      "ru": "Выберите дату 2"
    },
    "select_screen_color": {
      "de": "Wählen Sie Bildschirmfarbe",
      "en": "Select Screen Color",
      "es": "Seleccionar Color De Pantalla",
      "fr": "Sélectionnez La Couleur De l'Écran",
      "it": "Seleziona Colore Schermo",
      "ne": "Selecteer Schermkleur",
      "po": "Wybierz Kolor Ekranu",
      "pg": "Selecione A Cor Da Tela",
      "ru": "Выберите цвет экрана"
    },
    "select_person_you_want_to_change": {
      "de": "Wählen Sie die Person aus, die Sie ändern möchten",
      "en": "Select person you want to change",
      "es": "Seleccione la persona que desea cambiar",
      "fr": "Sélectionnez la personne que vous souhaitez modifier",
      "it": "Seleziona la persona che vuoi cambiare",
      "ne": "Klik persoon die je wilt wijzigen",
      "po": "Wybierz osobę, którą chcesz zmienić",
      "pg": "Selecione a pessoa que você deseja alterar",
      "ru": "Выберите человека, которого хотите изменить"
    },
    "self_created": {
      "de": "Selbst erstellt",
      "en": "Self Created",
      "es": "Autocreado",
      "fr": "Auto-créé",
      "it": "Autocreato",
      "ne": "Zelf Gecreëerd",
      "po": "Stworzone samodzielnie",
      "pg": "Autocriado",
      "ru": "Самостоятельно созданный"
    },
    "set_image": {
      "de": "Bild Festlegen",
      "en": "Set Image",
      "es": "Establecer Imagen",
      "fr": "Définir l'Image",
      "it": "Imposta Immagine",
      "ne": "Stel Afbeelding In",
      "po": "Ustaw Obraz",
      "pg": "Definir Imagem",
      "ru": "Установить изображение"
    },
    "settings": {
      "de": "Einstellungen",
      "en": "Settings",
      "es": "Ajustes",
      "fr": "Paramètres",
      "it": "Impostazioni",
      "ne": "Instellingen",
      "po": "Ustawienia",
      "pg": "Configurações",
      "ru": "Настройки"
    },
    "silver": {
      "de": "Silber",
      "en": "Silver",
      "es": "Plata",
      "fr": "Argent",
      "it": "Argento",
      "ne": "Zilverkleurig",
      "po": "Srebro",
      "pg": "Prata",
      "ru": "Серебро"
    },
    "sold": {
      "de": "Verkauft",
      "en": "Sold",
      "es": "Vendida",
      "fr": "Vendue",
      "it": "Venduta",
      "ne": "Verkocht",
      "po": "Sprzedany",
      "pg": "Vendida",
      "ru": "Продал"
    },
    "special_features": {
      "de": "Besondere Merkmale",
      "en": "Special Features",
      "es": "Características Especiales",
      "fr": "Fonctionnalités Spéciales",
      "it": "Caratteristiche Speciali",
      "ne": "Bijzondere Eigenschappen",
      "po": "Cechy Szczególne",
      "pg": "Características Especiais",
      "ru": "Особые возможности"
    },
    "spent": {
      "de": "Ausgegeben",
      "en": "Spent",
      "es": "Gastada",
      "fr": "Dépensé",
      "it": "Spesa",
      "ne": "Besteed",
      "po": "Zużyty",
      "pg": "Gasto",
      "ru": "Потраченный"
    },
      "strawberryblond": {
      "de": "Rotblond",
      "en": "Strawberry Blond",
      "es": "Rubio Fresa",
      "fr": "Blond Fraise",
      "it": "Biondo Fragola",
      "ne": "Aardbeiblond",
      "po": "Truskawkowy Blond",
      "pg": "Loiro Morango",
      "ru": "Клубничный блонд"
    },
    "teal": {
      "de": "Blaugrün",
      "en": "Teal",
      "es": "Verde Azulado",
      "fr": "Sarcelle",
      "it": "Verde Acqua",
      "ne": "Wintertaling",
      "po": "Cyraneczka",
      "pg": "Cerceta",
      "ru": "Бирюзовый"
    },
    "titan": {
      "de": "Titan",
      "en": "Titan",
      "es": "Titán",
      "fr": "Titan",
      "it": "Titano",
      "ne": "Titanium",
      "po": "Tytan",
      "pg": "Titã",
      "ru": "Титан"
    },
    "to": {
      "de": "Zu",
      "en": "To",
      "es": "A",
      "fr": "À",
      "it": "A",
      "ne": "Tot",
      "po": "Do",
      "pg": "Para",
      "ru": "К"
    },
    "total": {
      "de": "Gesamt",
      "en": "Total",
      "es": "Total",
      "fr": "Totale",
      "it": "Totale",
      "ne": "Totaal",
      "po": "Całkowity",
      "pg": "Total",
      "ru": "Общий"
    },
    "total_is_not_equal_to_amount": {
      "de": "Die Gesamtsumme ist nicht gleich Betrag oder Null. Bitte korrigieren!",
      "en": "Total is not equal to amount or zero. Please correct!",
      "es": "El total no es igual a la cantidad ni a cero. ¡Por favor corrija!",
      "fr": "Le total n'est pas égal au montant ou à zéro. Corrigez s'il vous plaît!",
      "it": "Il totale non è uguale all'importo o a zero. Per favore Correggi!",
      "ne": "Het totaal is ongelijk aan het bedrag of nul. Corrigeer a.u.b.!",
      "po": "Suma nie jest równa kwocie ani zeru. Proszę popraw!",
      "pg": "O total não é igual ao valor ou zero. Por favor corrija!",
      "ru": "Итог не равен сумме или нулю. Пожалуйста исправьте!"
    },
    "type_birthday": {
      "de": "Geben Sie Geburtstag Ein",
      "en": "Type Birthday ",
      "es": "Tipo Cumpleaños",
      "fr": "Type Anniversaire",
      "it": "Digita Compleanno",
      "ne": "Type Verjaardag In",
      "po": "Wpisz Urodziny",
      "pg": "Digite Aniversário",
      "ru": "Тип День Рождения"
    },
    "type_date1": {
      "de": "Geben Sie Datum 1 ein",
      "en": "Type Date 1",
      "es": "Tipo Fecha 1",
      "fr": "Tapez Date 1",
      "it": "Digitare Data 1",
      "ne": "Type Datum 1",
      "po": "Wpisz Data 1",
      "pg": "Digite Data 1",
      "ru": "Тип Дата 1"
    },
    "type_date2": {
      "de": "Geben Sie Datum 2 ein",
      "en": "Type Date 2",
      "es": "Tipo Fecha 2",
      "fr": "Tapez Date 2",
      "it": "Digitare Data 2",
      "ne": "Type Datum 2",
      "po": "Wpisz Data 2",
      "pg": "Digite Data 2",
      "ru": "Тип Дата 2"
    },
    "until": {
      "de": "Bis",
      "en": "Until",
      "es": "Hasta",
      "fr": "Jusqu'à",
      "it": "Fino a",
      "ne": "Tot",
      "po": "Dopóki",
      "pg": "Até",
      "ru": "До"
    },
    "use_a_minimum_2_of_words": {
      "de": "Verwenden Sie mindestens 2 Wörter.",
      "en": "Use a minimum of 2 words.",
      "es": "Utilice un mínimo de 2 palabras.",
      "fr": "Utilisez un minimum de 2 mots.",
      "it": "Utilizzare un minimo di 2 parole.",
      "ne": "Gebruik minimaal 2 woorden.",
      "po": "Użyj minimum 2 słów.",
      "pg": "Use no mínimo 2 palavras.",
      "ru": "Используйте минимум 2 слова."
    },
    "use_a_maximum_of_32_characters": {
      "de": "Verwenden Sie maximal 32 Zeichen.",
      "en": "Use a maximum of 32 characters.",
      "es": "Utilice un máximo de 32 caracteres.",
      "fr": "Utilisez un maximum de 32 caractères.",
      "it": "Utilizzare un massimo di 32 caratteri.",
      "ne": "Gebruik maximaal 32 karakters.",
      "po": "Użyj maksymalnie 32 znaków.",
      "pg": "Use no máximo 32 caracteres.",
      "ru": "Используйте максимум 32 символа."
    },
    "userdata": {
      "de": "Benutzerdaten",
      "en": "User Data",
      "es": "Datos Del Usuario",
      "fr": "Données d'Utilisateur",
      "it": "Dati Utente",
      "ne": "Gegevens Gebruiker",
      "po": "Dane Użytkownika",
      "pg": "Dados Do Usuário",
      "ru": "Данные пользователя"
    },
    "version": {
      "de": "Ausführung",
      "en": "Version",
      "es": "Versión",
      "fr": "Version",
      "it": "Versione",
      "ne": "Versie",
      "po": "Wersja",
      "pg": "Versão",
      "ru": "Версия"
    },
    "white": {
      "de": "Weiß",
      "en": "White",
      "es": "Blanca",
      "fr": "Blanche",
      "it": "Bianca",
      "ne": "Wit",
      "po": "Biały",
      "pg": "Branca",
      "ru": "Белый"
    },
    "wrong_date": {
      "de": "Falsches Datum.",
      "en": "Wrong date.",
      "es": "Fecha equivocada.",
      "fr": "Mauvaise date.",
      "it": "Data sbagliata.",
      "ne": "Verkeerde datum.",
      "po": "Zła data.",
      "pg": "Data errada.",
      "ru": "Неправильная дата."
    },
    "yellow": {
      "de": "Gelb",
      "en": "Yellow",
      "es": "Amarilla",
      "fr": "Jaune",
      "it": "Gialla",
      "ne": "Geel",
      "po": "Żółty",
      "pg": "Amarela",
      "ru": "Желтый"
    },
    "zzz": {
      "de": "",
      "en": "-",
      "es": "",
      "fr": "",
      "it": "",
      "ne": "-",
      "po": "",
      "pg": "",
      "ru": ""
    }
  }
}



